{
    "packages":
    [
        {
            "name": "Eicon",
            "websiteURL": "https://github.com/stm32duino",
            "maintainer": "Eicon",
            "email": "stmduino@st.com",
            "help":
            {
                "online": "http://www.stm32duino.com/"
            },
            "platforms":
            [
                {
                    "name": "Eicon_Kinetis boards",
                    "architecture": "kinetis",
                    "version": "0.1.0",
                    "category": "Contributed",
					"url": "https://gitlab.com/noeldiviney/eicon_wsl_arduino_kinetis_core/-/archive/0.1.0/eicon_wsl_arduino_kinetis_core-0.1.0.tar.bz2",
                    "archiveFileName": "eicon_wsl_arduino_kinetis_core-0.1.0.tar.bz2",
                    "checksum": "SHA-256:08fe0fdd69c3b85d5aec519fd258a48e051f7a5bdcfbb7e4c373e1a908f1f2a6",
                    "size": "27812507",
                    "boards":
                    [
						{"name": "MK22FX512VLH12"}
                    ],
                    "toolsDependencies":
                    [
			            {
                            "packager": "Eicon",
                            "name": "eicon-arm-none-eabi-gcc",
                            "version": "5.4.1"				
			            }, 
                        {
                            "packager": "Eicon",
                            "name": "STM32Tools",
                            "version": "2.0.0"
                        },
                        {
                            "packager": "Eicon",
                            "name": "CMSIS",
                            "version": "5.7.0"
                        },
			            {
                            "packager": "Eicon",
                            "name": "Openocd",
                            "version": "0.11.0"				
			            }
                    ]
                },
                {
                    "name": "Eicon_Kinetis boards",
                    "architecture": "kinetis",
                    "version": "0.1.1",
                    "category": "Contributed",
                    "url": "https://gitlab.com/noeldiviney/eicon_arduino_kinetis_core/-/archive/0.1.1/eicon_arduino_kinetis_core-0.1.1.tar.bz2",
                    "archiveFileName": "eicon_arduino_kinetis_core-0.1.1.tar.bz2",
                    "checksum": "SHA-256:9DE036606D462FBCADC2C8AD097638860A3F85BE773C792D877BC86D0815A7AA",
                    "size": "27915982",
                    "boards":
                    [
						{"name": "MK22FX512VLH12"}
                    ],
                    "toolsDependencies":
                    [
			            {
                            "packager": "Eicon",
                            "name": "eicon-arm-none-eabi-gcc",
                            "version": "5.4.1"				
			            }, 
                        {
                            "packager": "Eicon",
                            "name": "STM32Tools",
                            "version": "2.0.0"
                        },
                        {
                            "packager": "Eicon",
                            "name": "CMSIS",
                            "version": "5.7.0"
                        },
			            {
                            "packager": "Eicon",
                            "name": "Openocd",
                            "version": "0.11.0"				
			            }
                    ]
                },
                {
                    "name": "Eicon_Kinetis boards",
                    "architecture": "kinetis",
                    "version": "0.1.2",
                    "category": "Contributed",
					"url": "https://gitlab.com/noeldiviney/eicon_win_arduino_kinetis_core/-/archive/0.1.2/eicon_win_arduino_kinetis_core-0.1.2.tar.bz2",
                    "archiveFileName": "eicon_win_arduino_kinetis_core-0.1.2.tar.bz2",
                    "checksum": "SHA-256:af2927d7c90b93497334e2a8a7c15dacc0124c46c479412f57c79ac76062015a",
                    "size": "27805694",
                    "boards":
                    [
						{"name": "MK22FX512VLH12"}
                    ],
                    "toolsDependencies":
                    [
			            {
                            "packager": "Eicon",
                            "name": "eicon-arm-none-eabi-gcc",
                            "version": "5.4.1"				
			            }, 
                        {
                            "packager": "Eicon",
                            "name": "STM32Tools",
                            "version": "2.0.0"
                        },
                        {
                            "packager": "Eicon",
                            "name": "CMSIS",
                            "version": "5.7.0"
                        }
                    ]
                }
            ],
            "tools":
            [
                {
                    "name": "eicon-arm-none-eabi-gcc",
                    "version": "5.4.1",
                    "systems":
                    [
                        {
                            "host": "i686-mingw32",
                            "url": "https://gitlab.com/noeldiviney/eicon-arm-none-eabi-win/-/archive/5.4.1/eicon-arm-none-eabi-win-5.4.1.tar.bz2",
                            "archiveFileName": "eicon-arm-none-eabi-win-5.4.1.tar.bz2",
                            "checksum": "SHA-256:fde21ef43b30e77c9acfe223653e2ec62ab23e076ecfc5485da437591379c415",
                            "size": "51763795"
                        },
                        {
                            "host": "x86_64-pc-linux-gnu",
                            "url": "https://gitlab.com/noeldiviney/eicon-arm-none-eabi-lin/-/archive/5.4.1/eicon-arm-none-eabi-lin-5.4.1.tar.bz2",
                            "archiveFileName": "eicon-arm-none-eabi-lin-5.4.1.tar.bz2",
                            "checksum": "SHA-256:5b132311ca6a425c27109218f1ea086b598afbe3cdfa4c44bc2ae316c9fddcb8",
                            "size": "48243101"
                        }
					]
				}
            ]
        }
    ]
}
