{
    "packages":
	[
        {
            "name": "Eicon",
            "websiteURL": "https://github.com/stm32duino",
            "maintainer": "Eicon",
            "email": "stmduino@st.com",
            "help":
			{
                "online": "http://www.stm32duino.com/"
            },
            "platforms":
			[
                {
                    "name": "Eicon boards",
                    "architecture": "stm32",
                    "version": "2.0.0",
                    "category": "Contributed",
		            "url": "https://gitlab.com/noeldiviney/eicon_wsl_arduino_stm32_core/-/archive/2.0.0/eicon_wsl_arduino_stm32_core-2.0.0.tar.bz2",
                    "archiveFileName": "eicon_wsl_arduino_stm32_core-2.0.0.tar.bz2",
                    "checksum": "SHA-256:1866c8b3af111f406b81eb5730702c9fdf5ed7ab25acbd8ed8772a38ef6f5a5f",
                    "size": "37900404",
                    "boards":
					[
						{"name": "F103C8T6"},
						{"name": "F427ZIT6"},
						{"name": "F429ZIT6"},
						{"name": "F030F4"}
                    ],
                    "toolsDependencies":
					[
                        {
                            "packager": "Eicon",
                            "name": "xpack-arm-none-eabi-gcc",
                            "version": "9.3.1-1.3"
                        },
                        {
                            "packager": "Eicon",
                            "name": "STM32Tools",
                            "version": "2.0.0"
                        },
                        {
                            "packager": "Eicon",
                            "name": "CMSIS",
                            "version": "5.7.0"
                        }
                    ]
                },
                {
                    "name": "Eicon boards",
                    "architecture": "stm32",
                    "version": "2.1.0",
                    "category": "Contributed",
                    "url": "https://gitlab.com/noeldiviney/eicon_wsl_arduino_stm32_core/-/archive/2.1.0/eicon_wsl_arduino_stm32_core-2.1.0.tar.bz2",
                    "archiveFileName": "eicon_wsl_arduino_stm32_core-2.1.0.tar.bz2",
                    "checksum": "SHA-256:b65d9b36b1d77edf55b95dc5fe24345620d8962d91b88fd22bf6a465e099dc26",
                    "size": "40984423",
                    "boards":
                    [
						{"name": "F103C8T6"},
						{"name": "F427ZIT6"},
						{"name": "F429ZIT6"},
						{"name": "F030F4"}
                    ],
                    "toolsDependencies":
                    [
                        {
                            "packager": "Eicon",
                            "name": "xpack-arm-none-eabi-gcc",
                            "version": "10.2.1-1.1"
                        },
                        {
                            "packager": "Eicon",
                            "name": "STM32Tools",
                            "version": "2.1.0"
                        },
                        {
                            "packager": "Eicon",
                            "name": "CMSIS",
                            "version": "5.7.0"
                        }
                    ]
                },
                {
                    "name": "Eicon boards",
                    "architecture": "stm32",
                    "version": "2.2.0",
                    "category": "Contributed",
                    "url": "https://gitlab.com/noeldiviney/eicon_wsl_arduino_stm32_core/-/archive/2.2.0/eicon_wsl_arduino_stm32_core-2.2.0.tar.bz2",
                    "archiveFileName": "eicon_wsl_arduino_stm32_core-2.2.0.tar.bz2",
                    "checksum": "SHA-256:03ca3484efda7cbca37f4d3047f66d763e8025d7f2c1627eed6137d34fcf7ca9",
                    "size": "40764670",
                    "boards":
                    [
						{"name": "F103C8T6"},
						{"name": "F427ZIT6"},
						{"name": "F429ZIT6"},
						{"name": "F030F4"}
                    ],
                    "toolsDependencies":
                    [
                        {
                            "packager": "Eicon",
                            "name": "xpack-arm-none-eabi-gcc",
                            "version": "10.3.1-2.3"
                        },
                        {
                            "packager": "Eicon",
                            "name": "STM32Tools",
                            "version": "2.1.1"
                        },
                        {
                            "packager": "Eicon",
                            "name": "CMSIS",
                            "version": "5.7.0"
                        }
                    ]
                }
            ],
            "tools":
			[
                {
                    "name": "xpack-arm-none-eabi-gcc",
                    "version": "9.3.1-1.3",
                    "systems":
                    [
                        {
                            "host": "arm-linux-gnueabihf",
                            "url": "https://github.com/xpack-dev-tools/arm-none-eabi-gcc-xpack/releases/download/v9.3.1-1.3/xpack-arm-none-eabi-gcc-9.3.1-1.3-linux-arm.tar.gz",
                            "archiveFileName": "xpack-arm-none-eabi-gcc-9.3.1-1.3-linux-arm.tar.gz",
                            "checksum": "SHA-256:0e6720296f291141cd757d90e6bf60867a1232de9abc52b0cde28af12eeb94f2",
                            "size": "147111321"
                        },
                        {
                            "host": "aarch64-linux-gnu",
                            "url": "https://github.com/xpack-dev-tools/arm-none-eabi-gcc-xpack/releases/download/v9.3.1-1.3/xpack-arm-none-eabi-gcc-9.3.1-1.3-linux-arm64.tar.gz",
                            "archiveFileName": "xpack-arm-none-eabi-gcc-9.3.1-1.3-linux-arm64.tar.gz",
                            "checksum": "SHA-256:9a9e96b9ac3634d7632d35aa0d8138f8468d4f3f4d752374a95420ff7c8e4476",
                            "size": "150584175"
                        },
                        {
                            "host": "i686-mingw32",
                            "url": "https://github.com/xpack-dev-tools/arm-none-eabi-gcc-xpack/releases/download/v9.3.1-1.3/xpack-arm-none-eabi-gcc-9.3.1-1.3-win32-x32.zip",
                            "archiveFileName": "xpack-arm-none-eabi-gcc-9.3.1-1.3-win32-x32.zip",
                            "checksum": "SHA-256:7432cfff045dc421d2ba177c3777ec1e82d4febe5f5f51fb2e90ff07d27cd466",
                            "size": "148593506"
                        },
                        {
                            "host": "x86_64-apple-darwin",
                            "url": "https://github.com/xpack-dev-tools/arm-none-eabi-gcc-xpack/releases/download/v9.3.1-1.3/xpack-arm-none-eabi-gcc-9.3.1-1.3-darwin-x64.tar.gz",
                            "archiveFileName": "xpack-arm-none-eabi-gcc-9.3.1-1.3-darwin-x64.tar.gz",
                            "checksum": "SHA-256:f22f0d49c27f844dcfe629a6a33878d767b6945acd7508d9578b20b17b106f4c",
                            "size": "148641073"
                        },
                        {
                            "host": "x86_64-pc-linux-gnu",
                            "url": "https://github.com/xpack-dev-tools/arm-none-eabi-gcc-xpack/releases/download/v9.3.1-1.3/xpack-arm-none-eabi-gcc-9.3.1-1.3-linux-x64.tar.gz",
                            "archiveFileName": "xpack-arm-none-eabi-gcc-9.3.1-1.3-linux-x64.tar.gz",
                            "checksum": "SHA-256:9045d261b000d921887fc801427542eed2df1616f63a2969a2640f8be2593686",
                            "size": "151422620"
                        },
                        {
                            "host": "i686-pc-linux-gnu",
                            "url": "https://github.com/xpack-dev-tools/arm-none-eabi-gcc-xpack/releases/download/v9.3.1-1.3/xpack-arm-none-eabi-gcc-9.3.1-1.3-linux-x32.tar.gz",
                            "archiveFileName": "xpack-arm-none-eabi-gcc-9.3.1-1.3-linux-x32.tar.gz",
                            "checksum": "SHA-256:1950c7b0b4e35bacec32450158ec192ac469189a5fb27c2fd7c01e9603e50e64",
                            "size": "154309058"
                        }
                    ]
                },
                {
                    "name": "xpack-arm-none-eabi-gcc",
                    "version": "10.2.1-1.1",
                    "systems":
                    [
                        {
                            "host": "arm-linux-gnueabihf",
                            "url": "https://github.com/xpack-dev-tools/arm-none-eabi-gcc-xpack/releases/download/v10.2.1-1.1/xpack-arm-none-eabi-gcc-10.2.1-1.1-linux-arm.tar.gz",
                            "archiveFileName": "xpack-arm-none-eabi-gcc-10.2.1-1.1-linux-arm.tar.gz",
                            "checksum": "SHA-256:b726faccb8a3c426012592145d9d49a9b998a950613a4848bf8d899a8929ae34",
                            "size": "182652907"
                        },
                        {
                            "host": "aarch64-linux-gnu",
                            "url": "https://github.com/xpack-dev-tools/arm-none-eabi-gcc-xpack/releases/download/v10.2.1-1.1/xpack-arm-none-eabi-gcc-10.2.1-1.1-linux-arm64.tar.gz",
                            "archiveFileName": "xpack-arm-none-eabi-gcc-10.2.1-1.1-linux-arm64.tar.gz",
                            "checksum": "SHA-256:88b4f581a14b0dc2ee2313f4342f38996a4c8f3e4d09d9f70a6c4a4b9ea360e7",
                            "size": "187490794"
                        },
                        {
                            "host": "i686-mingw32",
                            "url": "https://github.com/xpack-dev-tools/arm-none-eabi-gcc-xpack/releases/download/v10.2.1-1.1/xpack-arm-none-eabi-gcc-10.2.1-1.1-win32-ia32.zip",
                            "archiveFileName": "xpack-arm-none-eabi-gcc-10.2.1-1.1-win32-ia32.zip",
                            "checksum": "SHA-256:5b4576c8280a6788bd1abe54c8172e03f9947ddd776960d2043b33955389e739",
                            "size": "190155753"
                        },
                        {
                            "host": "x86_64-apple-darwin",
                            "url": "https://github.com/xpack-dev-tools/arm-none-eabi-gcc-xpack/releases/download/v10.2.1-1.1/xpack-arm-none-eabi-gcc-10.2.1-1.1-darwin-x64.tar.gz",
                            "archiveFileName": "xpack-arm-none-eabi-gcc-10.2.1-1.1-darwin-x64.tar.gz",
                            "checksum": "SHA-256:061615d3e35d026cfa3ef8999f2bdaef2181b56e61029f58c8e0f1054bba046b",
                            "size": "183654470"
                        },
                        {
                            "host": "x86_64-pc-linux-gnu",
                            "url": "https://github.com/xpack-dev-tools/arm-none-eabi-gcc-xpack/releases/download/v10.2.1-1.1/xpack-arm-none-eabi-gcc-10.2.1-1.1-linux-x64.tar.gz",
                            "archiveFileName": "xpack-arm-none-eabi-gcc-10.2.1-1.1-linux-x64.tar.gz",
                            "checksum": "SHA-256:840e90b527d30143b8d8e5eb894218858ed14226bdc8664686f0848592b6e474",
                            "size": "188707051"
                        },
                        {
                            "host": "i686-pc-linux-gnu",
                            "url": "https://github.com/xpack-dev-tools/arm-none-eabi-gcc-xpack/releases/download/v10.2.1-1.1/xpack-arm-none-eabi-gcc-10.2.1-1.1-linux-ia32.tar.gz",
                            "archiveFileName": "xpack-arm-none-eabi-gcc-10.2.1-1.1-linux-ia32.tar.gz",
                            "checksum": "SHA-256:8adaca8af367a54d1acd2b274cfdc18384b87fbe0ba613322ea3ead20677a132",
                            "size": "192497639"
                        }
                    ]
                },
                {
                    "name": "xpack-arm-none-eabi-gcc",
                    "version": "10.3.1-2.3",
                    "systems":
                    [
                        {
                            "host": "arm-linux-gnueabihf",
                            "url": "https://github.com/xpack-dev-tools/arm-none-eabi-gcc-xpack/releases/download/v10.3.1-2.3/xpack-arm-none-eabi-gcc-10.3.1-2.3-linux-arm.tar.gz",
                            "archiveFileName": "xpack-arm-none-eabi-gcc-10.3.1-2.3-linux-arm.tar.gz",
                            "checksum": "SHA-256:cf152bb008697143b802a85fffffc2c9b562bc1e6d0984ad02d4ee1f1bb91790",
                            "size": "169168939"
                        },
                        {
                            "host": "aarch64-linux-gnu",
                            "url": "https://github.com/xpack-dev-tools/arm-none-eabi-gcc-xpack/releases/download/v10.3.1-2.3/xpack-arm-none-eabi-gcc-10.3.1-2.3-linux-arm64.tar.gz",
                            "archiveFileName": "xpack-arm-none-eabi-gcc-10.3.1-2.3-linux-arm64.tar.gz",
                            "checksum": "SHA-256:6e3ee605079ba084836cd057022e16c28605f4068042cd14397976b836ea1a21",
                            "size": "174454524"
                        },
                        {
                            "host": "i686-mingw32",
                            "url": "https://github.com/xpack-dev-tools/arm-none-eabi-gcc-xpack/releases/download/v10.3.1-2.3/xpack-arm-none-eabi-gcc-10.3.1-2.3-win32-ia32.zip",
                            "archiveFileName": "xpack-arm-none-eabi-gcc-10.3.1-2.3-win32-ia32.zip",
                            "checksum": "SHA-256:c98fc443d7ef3524d42a40b6635e8b99c736efac77729f8a70463bb9ba19bc85",
                            "size": "180590105"
                        },
                        {
                            "host": "x86_64-apple-darwin",
                            "url": "https://github.com/xpack-dev-tools/arm-none-eabi-gcc-xpack/releases/download/v10.3.1-2.3/xpack-arm-none-eabi-gcc-10.3.1-2.3-darwin-x64.tar.gz",
                            "archiveFileName": "xpack-arm-none-eabi-gcc-10.3.1-2.3-darwin-x64.tar.gz",
                            "checksum": "SHA-256:eb9218eaafb74a05fab9cbbeb49fd4fe7b85c6ba411aefc66f681a5a862e8d8e",
                            "size": "173440158"
                        },
                        {
                            "host": "x86_64-pc-linux-gnu",
                            "url": "https://github.com/xpack-dev-tools/arm-none-eabi-gcc-xpack/releases/download/v10.3.1-2.3/xpack-arm-none-eabi-gcc-10.3.1-2.3-linux-x64.tar.gz",
                            "archiveFileName": "xpack-arm-none-eabi-gcc-10.3.1-2.3-linux-x64.tar.gz",
                            "checksum": "SHA-256:559dcf1c2dfddac513110fe23da0ef254032c09967eaa901f075515d51818719",
                            "size": "175646740"
                        },
                        {
                            "host": "i686-pc-linux-gnu",
                            "url": "https://github.com/xpack-dev-tools/arm-none-eabi-gcc-xpack/releases/download/v10.3.1-2.3/xpack-arm-none-eabi-gcc-10.3.1-2.3-linux-ia32.tar.gz",
                            "archiveFileName": "xpack-arm-none-eabi-gcc-10.3.1-2.3-linux-ia32.tar.gz",
                            "checksum": "SHA-256:8a6621590ac2f0b33fc71f1c501af6b60e900fc3d895a11f20de850cd4f55ca3",
                            "size": "179184840"
                        }
                    ]
                },
                {
                    "name": "CMSIS",
                    "version": "5.7.0",
                    "systems":
                    [
                        {
                            "host": "i686-mingw32",
                            "url": "https://github.com/stm32duino/ArduinoModule-CMSIS/releases/download/5.7.0/CMSIS-5.7.0.tar.bz2",
                            "archiveFileName": "CMSIS-5.7.0.tar.bz2",
                            "checksum": "SHA-256:0b04b0f214e483bcc360cda985cddc0de8031714019ceabcda4770d510b82bfe",
                            "size": "26151901"
                        },
                        {
                            "host": "x86_64-apple-darwin",
                            "url": "https://github.com/stm32duino/ArduinoModule-CMSIS/releases/download/5.7.0/CMSIS-5.7.0.tar.bz2",
                            "archiveFileName": "CMSIS-5.7.0.tar.bz2",
                            "checksum": "SHA-256:0b04b0f214e483bcc360cda985cddc0de8031714019ceabcda4770d510b82bfe",
                            "size": "26151901"
                        },
                        {
                            "host": "x86_64-pc-linux-gnu",
                            "url": "https://github.com/stm32duino/ArduinoModule-CMSIS/releases/download/5.7.0/CMSIS-5.7.0.tar.bz2",
                            "archiveFileName": "CMSIS-5.7.0.tar.bz2",
                            "checksum": "SHA-256:0b04b0f214e483bcc360cda985cddc0de8031714019ceabcda4770d510b82bfe",
                            "size": "26151901"
                        },
                        {
                            "host": "i686-pc-linux-gnu",
                            "url": "https://github.com/stm32duino/ArduinoModule-CMSIS/releases/download/5.7.0/CMSIS-5.7.0.tar.bz2",
                            "archiveFileName": "CMSIS-5.7.0.tar.bz2",
                            "checksum": "SHA-256:0b04b0f214e483bcc360cda985cddc0de8031714019ceabcda4770d510b82bfe",
                            "size": "26151901"
                        },
                        {
                            "host": "arm-linux-gnueabihf",
                            "url": "https://github.com/stm32duino/ArduinoModule-CMSIS/releases/download/5.7.0/CMSIS-5.7.0.tar.bz2",
                            "archiveFileName": "CMSIS-5.7.0.tar.bz2",
                            "checksum": "SHA-256:0b04b0f214e483bcc360cda985cddc0de8031714019ceabcda4770d510b82bfe",
                            "size": "26151901"
                        },
                        {
                            "host": "all",
                            "url": "https://github.com/stm32duino/ArduinoModule-CMSIS/releases/download/5.7.0/CMSIS-5.7.0.tar.bz2",
                            "archiveFileName": "CMSIS-5.7.0.tar.bz2",
                            "checksum": "SHA-256:0b04b0f214e483bcc360cda985cddc0de8031714019ceabcda4770d510b82bfe",
                            "size": "26151901"
                        }
                    ]
                },
                {
                    "name": "STM32Tools",
                    "version": "2.0.0",
                    "systems":
                    [
                        {
                            "host": "i686-mingw32",
                            "url": "https://github.com/stm32duino/Arduino_Tools/releases/download/2.0.0/STM32Tools-2.0.0-windows.tar.bz2",
                            "archiveFileName": "STM32Tools-2.0.0-windows.tar.bz2",
                            "checksum": "SHA-256:6316ffd1667344952bc5e16ff60783f9b4211d1eb54fc0d0c28e836b1490b717",
                            "size": "2486087"
                        },
                        {
                            "host": "x86_64-apple-darwin",
                            "url": "https://github.com/stm32duino/Arduino_Tools/releases/download/2.0.0/STM32Tools-2.0.0-mac.tar.bz2",
                            "archiveFileName": "STM32Tools-2.0.0-mac.tar.bz2",
                            "checksum": "SHA-256:2612be87206d2ba6f7cf797c194dbc070139defc884b881c1957a8d148c2114c",
                            "size": "486398"
                        },
                        {
                            "host": "x86_64-pc-linux-gnu",
                            "url": "https://github.com/stm32duino/Arduino_Tools/releases/download/2.0.0/STM32Tools-2.0.0-linux.tar.bz2",
                            "archiveFileName": "STM32Tools-2.0.0-linux.tar.bz2",
                            "checksum": "SHA-256:850186554df1d56f5f5336d6310551b734b2ff97c92677ca0ece11f134b72d0f",
                            "size": "479795"
                        },
                        {
                            "host": "i686-pc-linux-gnu",
                            "url": "https://github.com/stm32duino/Arduino_Tools/releases/download/2.0.0/STM32Tools-2.0.0-linux.tar.bz2",
                            "archiveFileName": "STM32Tools-2.0.0-linux.tar.bz2",
                            "checksum": "SHA-256:850186554df1d56f5f5336d6310551b734b2ff97c92677ca0ece11f134b72d0f",
                            "size": "479795"
                        }
                    ]
                },
                {
                    "name": "STM32Tools",
                    "version": "2.1.0",
                    "systems":
                    [
                        {
                            "host": "i686-mingw32",
                            "url": "https://github.com/stm32duino/Arduino_Tools/releases/download/2.1.0/STM32Tools-2.1.0-windows.tar.bz2",
                            "archiveFileName": "STM32Tools-2.1.0-windows.tar.bz2",
                            "checksum": "SHA-256:d4d4b4fe0500ae1a1906c5e552b967277fd0e2df457f102b8c363c89f77cb6f2",
                            "size": "2559277"
                        },
                        {
                            "host": "x86_64-apple-darwin",
                            "url": "https://github.com/stm32duino/Arduino_Tools/releases/download/2.1.0/STM32Tools-2.1.0-mac.tar.bz2",
                            "archiveFileName": "STM32Tools-2.1.0-mac.tar.bz2",
                            "checksum": "SHA-256:475357fc7006fc003c320aa7a6cce7d8dbb81adc3b66929fc8a0a360bd3bb348",
                            "size": "447015"
                        },
                        {
                            "host": "x86_64-pc-linux-gnu",
                            "url": "https://github.com/stm32duino/Arduino_Tools/releases/download/2.1.0/STM32Tools-2.1.0-linux.tar.bz2",
                            "archiveFileName": "STM32Tools-2.1.0-linux.tar.bz2",
                            "checksum": "SHA-256:06677d45ef42410590ae0b03fdf58f6a1f338726df4911fabc13822f4542ca2f",
                            "size": "479203"
                        },
                        {
                            "host": "i686-pc-linux-gnu",
                            "url": "https://github.com/stm32duino/Arduino_Tools/releases/download/2.1.0/STM32Tools-2.1.0-linux.tar.bz2",
                            "archiveFileName": "STM32Tools-2.1.0-linux.tar.bz2",
                            "checksum": "SHA-256:06677d45ef42410590ae0b03fdf58f6a1f338726df4911fabc13822f4542ca2f",
                            "size": "479203"
                        }
                    ]
                },
                {
                    "name": "STM32Tools",
                    "version": "2.1.1",
                    "systems":
                    [
                        {
                            "host": "i686-mingw32",
                            "url": "https://github.com/stm32duino/Arduino_Tools/releases/download/2.1.1/STM32Tools-2.1.1-windows.tar.bz2",
                            "archiveFileName": "STM32Tools-2.1.1-windows.tar.bz2",
                            "checksum": "SHA-256:385f1495a70613ca6771c0f824e420f44e27b1433b0b449aaade1dde63b35e68",
                            "size": "2587832"
                        },
                        {
                            "host": "x86_64-apple-darwin",
                            "url": "https://github.com/stm32duino/Arduino_Tools/releases/download/2.1.1/STM32Tools-2.1.1-mac.tar.bz2",
                            "archiveFileName": "STM32Tools-2.1.1-mac.tar.bz2",
                            "checksum": "SHA-256:417bc75ebf19060083e29cf65f7a9f71a6903b7fd158c154057ed723c5e847a1",
                            "size": "486815"
                        },
                        {
                            "host": "x86_64-pc-linux-gnu",
                            "url": "https://github.com/stm32duino/Arduino_Tools/releases/download/2.1.1/STM32Tools-2.1.1-linux.tar.bz2",
                            "archiveFileName": "STM32Tools-2.1.1-linux.tar.bz2",
                            "checksum": "SHA-256:35ecc3914e8a0a45de229111cc45b8cb39a8e0a8c66313562fd51977a7ab3dee",
                            "size": "480360"
                        },
                        {
                            "host": "i686-pc-linux-gnu",
                            "url": "https://github.com/stm32duino/Arduino_Tools/releases/download/2.1.1/STM32Tools-2.1.1-linux.tar.bz2",
                            "archiveFileName": "STM32Tools-2.1.1-linux.tar.bz2",
                            "checksum": "SHA-256:35ecc3914e8a0a45de229111cc45b8cb39a8e0a8c66313562fd51977a7ab3dee",
                            "size": "480360"
                        }
                    ]
                },
                {
                    "name": "cxppstm8",
                    "version": "4.1.3",
                    "systems":
                    [
                        {
                            "host": "i686-mingw32",
                            "url": "http://cosmicsoftware.com/Arduino/4.1.3/Cxppstm8.zip",
                            "archiveFileName": "Cxppstm8.zip",
                            "checksum": "SHA-256:1277e2ba80e744845ee55bb9088b206e324d401439ddd2956c13a4f418832dfe",
                            "size": "32363283"
                        }
                    ]
                },
                {
                    "name": "STM8Tools",
                    "version": "1.0.0",
                    "systems":
                    [
                        {
                            "host": "i686-mingw32",
                            "url": "https://github.com/stm32duino/Arduino_Tools_STM8/releases/download/1.0.0/STM8Tools-1.0.0-windows.tar.bz2",
                            "archiveFileName": "STM8Tools-1.0.0-windows.tar.bz2",
                            "checksum": "SHA-256:e8e8c8c23b41ae02e3363a54acfd0c716813b8ef64db490af1555993c81dcd0a",
                            "size": "6864757"
                        }
                    ]
                }            
			]
        }
    ]
}
